…
tempdf
```

```
## Simple feature collection with 44 features and 11 fields
## Geometry type: GEOMETRY
## Dimension:     XY
## Bounding box:  xmin: -2625586 ymin: 362589.8 xmax: 2206965 ymax: 5921583
## Projected CRS: +proj=aea +lat_1=25 +lat_2=47 +lon_0=105 +x_0=0 +y_0=0 +ellps=GRS80 +datum=WGS84 +units=m +no_defs
## # A tibble: 44 x 12
##    省           省级码 省类型 ENG_NAME     VAR_NAME   FIRST_GID FIRST_TYPE year 
##  * <chr>        <chr>  <chr>  <chr>        <chr>      <chr>     <chr>      <chr>
##  1 北京市       110000 直辖市 Beijing      Běi Jīng   110000    Municipal~ 2023 
##  2 天津市       120000 直辖市 Tianjin      Tiān Jīn   120000    Municipal~ 2023 
##  3 河北省       130000 省     Hebei        Hé Běi     130000    Province   2023 
##  4 山西省       140000 省     Shanxi       Shān Xī    140000    Province   2023 
##  5 内蒙古自治区 150000 自治区 Neimenggu    Nèi Měng ~ 150000    Autonomou~ 2023 
##  6 辽宁省       210000 省     Liaoning     Liáo Níng  210000    Province   2023 
##  7 吉林省       220000 省     Jilin        Jí Lín     220000    Province   2023 
##  8 黑龙江省     230000 省     Heilongjiang Hēi Lóng ~ 230000    Province   2023 
##  9 上海市       310000 直辖市 Shanghai     Shàng Hǎi  310000    Municipal~ 2023 
## 10 浙江省       330000 省     Zhejiang     Zhè Jiāng  330000    Province   2023 
## # i 34 more rows
## # i 4 more variables: geometry <MULTIPOLYGON [m]>, 省份 <chr>, 人口 <dbl>,
## #   FID <dbl>
```
…
